{
  "development": {
    "use_env_variable": "PG_DEVELOPMENT_URL",
    "dialect": "postgres"
  },
  "staging": {
    "use_env_variable": "PG_STAGING_URL",
    "dialect": "postgres"
  },
  "test": {
    "use_env_variable": "PG_TEST_URL",
    "dialect": "postgres"
  },
  "production": {
    "use_env_variable": "PG_PRODUCTION_URL",
    "dialect": "postgres"
  }
}